Alicia :  153.4, 151.9, 151.7, 148.6, 145.5, 145.9
Betsy  :  116.0, 116.0, 114.0, 111.1, 109.8, 108.2
Brenda :  151.2, 149.0, 147.7, 146.4, 145.1, 143.7
Carl   :  149.0, 146.8, 145.5, 144.2, 142.9, 141.5
Carmela:  140.2, 137.8, 136.5, 135.4, 134.0, 128.3